{"tracks": {"href": "https://api.spotify.com/v1/search?query=As+It+Was&type=track&offset=0&limit=5", "items": [{"album": {"album_type": "album", "artists": [{"external_urls": {"spotify": "https://open.spotify.com/artist/6KImCVD70vtIoJWnq6nGn3"}, "href": "https://api.spotify.com/v1/artists/6KImCVD70vtIoJWnq6nGn3", "id": "6KImCVD70vtIoJWnq6nGn3", "name": "Harry Styles", "type": "artist", "uri": "spotify:artist:6KImCVD70vtIoJWnq6nGn3"}], "available_markets": ["AR", "AU", "AT", "BE", "BO", "BR", "BG", "CA", "CL", "CO", "CR", "CY", "CZ", "DK", "DO", "DE", "EC", "EE", "SV", "FI", "FR", "GR", "GT", "HN", "HK", "HU", "IS", "IE", "IT", "LV", "LT", "LU", "MY", "MT", "MX", "NL", "NZ", "NI", "NO", "PA", "PY", "PE", "PH", "PL", "PT", "SG", "SK", "ES", "SE", "CH", "TW", "TR", "UY", "US", "GB", "AD", "LI", "MC", "ID", "JP", "TH", "VN", "RO", "IL", "ZA", "SA", "AE", "BH", "QA", "OM", "KW", "EG", "MA", "DZ", "TN", "LB", "JO", "PS", "IN", "BY", "KZ", "MD", "UA", "AL", "BA", "HR", "ME", "MK", "RS", "SI", "KR", "BD", "PK", "LK", "GH", "KE", "NG", "TZ", "UG", "AG", "AM", "BS", "BB", "BZ", "BT", "BW", "BF", "CV", "CW", "DM", "FJ", "GM", "GE", "GD", "GW", "GY", "HT", "JM", "KI", "LS", "LR", "MW", "MV", "ML", "MH", "FM", "NA", "NR", "NE", "PW", "PG", "WS", "SM", "ST", "SN", "SC", "SL", "SB", "KN", "LC", "VC", "SR", "TL", "TO", "TT", "TV", "VU", "AZ", "BN", "BI", "KH", "CM", "TD", "KM", "GQ", "SZ", "GA", "GN", "KG", "LA", "MO", "MR", "MN", "NP", "RW", "TG", "UZ", "ZW", "BJ", "MG", "MU", "MZ", "AO", "CI", "DJ", "ZM", "CD", "CG", "IQ", "LY", "TJ", "VE", "ET", "XK"], "external_urls": {"spotify": "https://open.spotify.com/album/5r36AJ6VOJtp00oxSkBZ5h"}, "href": "https://api.spotify.com/v1/albums/5r36AJ6VOJtp00oxSkBZ5h", "id": "5r36AJ6VOJtp00oxSkBZ5h", "images": [{"height": 640, "url": "https://i.scdn.co/image/ab67616d0000b2732e8ed79e177ff6011076f5f0", "width": 640}, {"height": 300, "url": "https://i.scdn.co/image/ab67616d00001e022e8ed79e177ff6011076f5f0", "width": 300}, {"height": 64, "url": "https://i.scdn.co/image/ab67616d000048512e8ed79e177ff6011076f5f0", "width": 64}], "name": "Harry's House", "release_date": "2022-05-20", "release_date_precision": "day", "total_tracks": 13, "type": "album", "uri": "spotify:album:5r36AJ6VOJtp00oxSkBZ5h"}, "artists": [{"external_urls": {"spotify": "https://open.spotify.com/artist/6KImCVD70vtIoJWnq6nGn3"}, "href": "https://api.spotify.com/v1/artists/6KImCVD70vtIoJWnq6nGn3", "id": "6KImCVD70vtIoJWnq6nGn3", "name": "Harry Styles", "type": "artist", "uri": "spotify:artist:6KImCVD70vtIoJWnq6nGn3"}], "available_markets": ["AR", "AU", "AT", "BE", "BO", "BR", "BG", "CA", "CL", "CO", "CR", "CY", "CZ", "DK", "DO", "DE", "EC", "EE", "SV", "FI", "FR", "GR", "GT", "HN", "HK", "HU", "IS", "IE", "IT", "LV", "LT", "LU", "MY", "MT", "MX", "NL", "NZ", "NI", "NO", "PA", "PY", "PE", "PH", "PL", "PT", "SG", "SK", "ES", "SE", "CH", "TW", "TR", "UY", "US", "GB", "AD", "LI", "MC", "ID", "JP", "TH", "VN", "RO", "IL", "ZA", "SA", "AE", "BH", "QA", "OM", "KW", "EG", "MA", "DZ", "TN", "LB", "JO", "PS", "IN", "BY", "KZ", "MD", "UA", "AL", "BA", "HR", "ME", "MK", "RS", "SI", "KR", "BD", "PK", "LK", "GH", "KE", "NG", "TZ", "UG", "AG", "AM", "BS", "BB", "BZ", "BT", "BW", "BF", "CV", "CW", "DM", "FJ", "GM", "GE", "GD", "GW", "GY", "HT", "JM", "KI", "LS", "LR", "MW", "MV", "ML", "MH", "FM", "NA", "NR", "NE", "PW", "PG", "WS", "SM", "ST", "SN", "SC", "SL", "SB", "KN", "LC", "VC", "SR", "TL", "TO", "TT", "TV", "VU", "AZ", "BN", "BI", "KH", "CM", "TD", "KM", "GQ", "SZ", "GA", "GN", "KG", "LA", "MO", "MR", "MN", "NP", "RW", "TG", "UZ", "ZW", "BJ", "MG", "MU", "MZ", "AO", "CI", "DJ", "ZM", "CD", "CG", "IQ", "LY", "TJ", "VE", "ET", "XK"], "disc_number": 1, "duration_ms": 167303, "explicit": false, "external_ids": {"isrc": "USSM12200612"}, "external_urls": {"spotify": "https://open.spotify.com/track/4Dvkj6JhhA12EX05fT7y2e"}, "href": "https://api.spotify.com/v1/tracks/4Dvkj6JhhA12EX05fT7y2e", "id": "4Dvkj6JhhA12EX05fT7y2e", "is_local": false, "name": "As It Was", "popularity": 94, "preview_url": "https://p.scdn.co/mp3-preview/c43dd07043b29e800c1a65b3a0102861fa3cf418?cid=c0c7c5d769104bb8ae0333dcc57aba0e", "track_number": 4, "type": "track", "uri": "spotify:track:4Dvkj6JhhA12EX05fT7y2e"}, {"album": {"album_type": "album", "artists": [{"external_urls": {"spotify": "https://open.spotify.com/artist/2FXC3k01G6Gw61bmprjgqS"}, "href": "https://api.spotify.com/v1/artists/2FXC3k01G6Gw61bmprjgqS", "id": "2FXC3k01G6Gw61bmprjgqS", "name": "Hozier", "type": "artist", "uri": "spotify:artist:2FXC3k01G6Gw61bmprjgqS"}], "available_markets": ["AR", "AT", "BE", "BO", "BR", "BG", "CL", "CO", "CR", "CY", "CZ", "DK", "DO", "DE", "EC", "EE", "SV", "FI", "FR", "GR", "GT", "HN", "HK", "HU", "IS", "IE", "IT", "LV", "LT", "LU", "MY", "MT", "MX", "NL", "NZ", "NI", "NO", "PA", "PY", "PE", "PH", "PL", "PT", "SG", "SK", "ES", "SE", "CH", "TW", "TR", "UY", "GB", "AD", "LI", "MC", "ID", "JP", "TH", "VN", "RO", "IL", "ZA", "SA", "AE", "BH", "QA", "OM", "KW", "EG", "MA", "DZ", "TN", "LB", "JO", "PS", "IN", "BY", "KZ", "MD", "UA", "AL", "BA", "HR", "ME", "MK", "RS", "SI", "KR", "BD", "PK", "LK", "GH", "KE", "NG", "TZ", "UG", "AG", "AM", "BS", "BB", "BZ", "BT", "BW", "BF", "CV", "CW", "DM", "FJ", "GM", "GE", "GD", "GW", "GY", "HT", "JM", "KI", "LS", "LR", "MW", "MV", "ML", "MH", "FM", "NA", "NR", "NE", "PW", "PG", "WS", "SM", "ST", "SN", "SC", "SL", "SB", "KN", "LC", "VC", "SR", "TL", "TO", "TT", "TV", "VU", "AZ", "BN", "BI", "KH", "CM", "TD", "KM", "GQ", "SZ", "GA", "GN", "KG", "LA", "MO", "MR", "MN", "NP", "RW", "TG", "UZ", "ZW", "BJ", "MG", "MU", "MZ", "AO", "CI", "DJ", "ZM", "CD", "CG", "IQ", "LY", "TJ", "VE", "ET", "XK"], "external_urls": {"spotify": "https://open.spotify.com/album/5j1ZsFyNCsnt62prbs85eE"}, "href": "https://api.spotify.com/v1/albums/5j1ZsFyNCsnt62prbs85eE", "id": "5j1ZsFyNCsnt62prbs85eE", "images": [{"height": 640, "url": "https://i.scdn.co/image/ab67616d0000b273299e8e9983e2b0455e5e8505", "width": 640}, {"height": 300, "url": "https://i.scdn.co/image/ab67616d00001e02299e8e9983e2b0455e5e8505", "width": 300}, {"height": 64, "url": "https://i.scdn.co/image/ab67616d00004851299e8e9983e2b0455e5e8505", "width": 64}], "name": "Wasteland, Baby!", "release_date": "2019-03-01", "release_date_precision": "day", "total_tracks": 14, "type": "album", "uri": "spotify:album:5j1ZsFyNCsnt62prbs85eE"}, "artists": [{"external_urls": {"spotify": "https://open.spotify.com/artist/2FXC3k01G6Gw61bmprjgqS"}, "href": "https://api.spotify.com/v1/artists/2FXC3k01G6Gw61bmprjgqS", "id": "2FXC3k01G6Gw61bmprjgqS", "name": "Hozier", "type": "artist", "uri": "spotify:artist:2FXC3k01G6Gw61bmprjgqS"}], "available_markets": ["AR", "AT", "BE", "BO", "BR", "BG", "CL", "CO", "CR", "CY", "CZ", "DK", "DO", "DE", "EC", "EE", "SV", "FI", "FR", "GR", "GT", "HN", "HK", "HU", "IS", "IE", "IT", "LV", "LT", "LU", "MY", "MT", "MX", "NL", "NZ", "NI", "NO", "PA", "PY", "PE", "PH", "PL", "PT", "SG", "SK", "ES", "SE", "CH", "TW", "TR", "UY", "GB", "AD", "LI", "MC", "ID", "JP", "TH", "VN", "RO", "IL", "ZA", "SA", "AE", "BH", "QA", "OM", "KW", "EG", "MA", "DZ", "TN", "LB", "JO", "PS", "IN", "BY", "KZ", "MD", "UA", "AL", "BA", "HR", "ME", "MK", "RS", "SI", "KR", "BD", "PK", "LK", "GH", "KE", "NG", "TZ", "UG", "AG", "AM", "BS", "BB", "BZ", "BT", "BW", "BF", "CV", "CW", "DM", "FJ", "GM", "GE", "GD", "GW", "GY", "HT", "JM", "KI", "LS", "LR", "MW", "MV", "ML", "MH", "FM", "NA", "NR", "NE", "PW", "PG", "WS", "SM", "ST", "SN", "SC", "SL", "SB", "KN", "LC", "VC", "SR", "TL", "TO", "TT", "TV", "VU", "AZ", "BN", "BI", "KH", "CM", "TD", "KM", "GQ", "SZ", "GA", "GN", "KG", "LA", "MO", "MR", "MN", "NP", "RW", "TG", "UZ", "ZW", "BJ", "MG", "MU", "MZ", "AO", "CI", "DJ", "ZM", "CD", "CG", "IQ", "LY", "TJ", "VE", "ET", "XK"], "disc_number": 1, "duration_ms": 207653, "explicit": false, "external_ids": {"isrc": "IEACJ1800128"}, "external_urls": {"spotify": "https://open.spotify.com/track/4li9KmEUg6RVrAe1Y4p86W"}, "href": "https://api.spotify.com/v1/tracks/4li9KmEUg6RVrAe1Y4p86W", "id": "4li9KmEUg6RVrAe1Y4p86W", "is_local": false, "name": "As It Was", "popularity": 55, "preview_url": null, "track_number": 7, "type": "track", "uri": "spotify:track:4li9KmEUg6RVrAe1Y4p86W"}, {"album": {"album_type": "album", "artists": [{"external_urls": {"spotify": "https://open.spotify.com/artist/1Xylc3o4UrD53lo9CvFvVg"}, "href": "https://api.spotify.com/v1/artists/1Xylc3o4UrD53lo9CvFvVg", "id": "1Xylc3o4UrD53lo9CvFvVg", "name": "Zara Larsson", "type": "artist", "uri": "spotify:artist:1Xylc3o4UrD53lo9CvFvVg"}], "available_markets": ["AR", "AU", "AT", "BE", "BO", "BR", "BG", "CA", "CL", "CO", "CR", "CY", "CZ", "DK", "DO", "DE", "EC", "EE", "SV", "FI", "FR", "GR", "GT", "HN", "HK", "HU", "IS", "IE", "IT", "LV", "LT", "LU", "MY", "MT", "MX", "NL", "NZ", "NI", "NO", "PA", "PY", "PE", "PH", "PL", "PT", "SG", "SK", "ES", "SE", "CH", "TW", "TR", "UY", "US", "AD", "LI", "MC", "ID", "JP", "TH", "VN", "RO", "IL", "ZA", "MA", "DZ", "TN", "IN", "BY", "KZ", "MD", "UA", "AL", "BA", "HR", "ME", "MK", "RS", "SI", "KR", "BD", "PK", "LK", "GH", "KE", "NG", "TZ", "UG", "AG", "AM", "BS", "BB", "BZ", "BT", "BW", "BF", "CV", "CW", "DM", "FJ", "GM", "GE", "GD", "GW", "GY", "HT", "JM", "KI", "LS", "LR", "MW", "MV", "ML", "MH", "FM", "NA", "NR", "NE", "PW", "PG", "WS", "SM", "ST", "SN", "SC", "SL", "SB", "KN", "LC", "VC", "SR", "TL", "TO", "TT", "TV", "VU", "AZ", "BN", "BI", "KH", "CM", "TD", "KM", "GQ", "SZ", "GA", "GN", "KG", "LA", "MO", "MR", "MN", "NP", "RW", "TG", "UZ", "ZW", "BJ", "MG", "MU", "MZ", "AO", "CI", "DJ", "ZM", "CD", "CG", "TJ", "VE", "ET", "XK"], "external_urls": {"spotify": "https://open.spotify.com/album/5YLRVHDVRw3QqWbeTGpC5B"}, "href": "https://api.spotify.com/v1/albums/5YLRVHDVRw3QqWbeTGpC5B", "id": "5YLRVHDVRw3QqWbeTGpC5B", "images": [{"height": 640, "url": "https://i.scdn.co/image/ab67616d0000b2739e1683774b22648f4f178ed3", "width": 640}, {"height": 300, "url": "https://i.scdn.co/image/ab67616d00001e029e1683774b22648f4f178ed3", "width": 300}, {"height": 64, "url": "https://i.scdn.co/image/ab67616d000048519e1683774b22648f4f178ed3", "width": 64}], "name": "So Good", "release_date": "2017-03-17", "release_date_precision": "day", "total_tracks": 15, "type": "album", "uri": "spotify:album:5YLRVHDVRw3QqWbeTGpC5B"}, "artists": [{"external_urls": {"spotify": "https://open.spotify.com/artist/1Xylc3o4UrD53lo9CvFvVg"}, "href": "https://api.spotify.com/v1/artists/1Xylc3o4UrD53lo9CvFvVg", "id": "1Xylc3o4UrD53lo9CvFvVg", "name": "Zara Larsson", "type": "artist", "uri": "spotify:artist:1Xylc3o4UrD53lo9CvFvVg"}], "available_markets": ["AR", "AU", "AT", "BE", "BO", "BR", "BG", "CA", "CL", "CO", "CR", "CY", "CZ", "DK", "DO", "DE", "EC", "EE", "SV", "FI", "FR", "GR", "GT", "HN", "HK", "HU", "IS", "IE", "IT", "LV", "LT", "LU", "MY", "MT", "MX", "NL", "NZ", "NI", "NO", "PA", "PY", "PE", "PH", "PL", "PT", "SG", "SK", "ES", "SE", "CH", "TW", "TR", "UY", "US", "AD", "LI", "MC", "ID", "JP", "TH", "VN", "RO", "IL", "ZA", "MA", "DZ", "TN", "IN", "BY", "KZ", "MD", "UA", "AL", "BA", "HR", "ME", "MK", "RS", "SI", "KR", "BD", "PK", "LK", "GH", "KE", "NG", "TZ", "UG", "AG", "AM", "BS", "BB", "BZ", "BT", "BW", "BF", "CV", "CW", "DM", "FJ", "GM", "GE", "GD", "GW", "GY", "HT", "JM", "KI", "LS", "LR", "MW", "MV", "ML", "MH", "FM", "NA", "NR", "NE", "PW", "PG", "WS", "SM", "ST", "SN", "SC", "SL", "SB", "KN", "LC", "VC", "SR", "TL", "TO", "TT", "TV", "VU", "AZ", "BN", "BI", "KH", "CM", "TD", "KM", "GQ", "SZ", "GA", "GN", "KG", "LA", "MO", "MR", "MN", "NP", "RW", "TG", "UZ", "ZW", "BJ", "MG", "MU", "MZ", "AO", "CI", "DJ", "ZM", "CD", "CG", "TJ", "VE", "ET", "XK"], "disc_number": 1, "duration_ms": 201122, "explicit": false, "external_ids": {"isrc": "SEWEE1500509"}, "external_urls": {"spotify": "https://open.spotify.com/track/1rIKgCH4H52lrvDcz50hS8"}, "href": "https://api.spotify.com/v1/tracks/1rIKgCH4H52lrvDcz50hS8", "id": "1rIKgCH4H52lrvDcz50hS8", "is_local": false, "name": "Lush Life", "popularity": 83, "preview_url": "https://p.scdn.co/mp3-preview/2f14e67d9660815897317b300241b228e40bcd97?cid=c0c7c5d769104bb8ae0333dcc57aba0e", "track_number": 2, "type": "track", "uri": "spotify:track:1rIKgCH4H52lrvDcz50hS8"}, {"album": {"album_type": "single", "artists": [{"external_urls": {"spotify": "https://open.spotify.com/artist/7C2uVXwFKLlwHteHGnMLhZ"}, "href": "https://api.spotify.com/v1/artists/7C2uVXwFKLlwHteHGnMLhZ", "id": "7C2uVXwFKLlwHteHGnMLhZ", "name": "Lewis Hanton", "type": "artist", "uri": "spotify:artist:7C2uVXwFKLlwHteHGnMLhZ"}], "available_markets": ["AR", "AU", "AT", "BE", "BO", "BR", "BG", "CA", "CL", "CO", "CR", "CY", "CZ", "DK", "DO", "DE", "EC", "EE", "SV", "FI", "FR", "GR", "GT", "HN", "HK", "HU", "IS", "IE", "IT", "LV", "LT", "LU", "MY", "MT", "MX", "NL", "NZ", "NI", "NO", "PA", "PY", "PE", "PH", "PL", "PT", "SG", "SK", "ES", "SE", "CH", "TW", "TR", "UY", "US", "GB", "AD", "LI", "MC", "ID", "JP", "TH", "VN", "RO", "IL", "ZA", "SA", "AE", "BH", "QA", "OM", "KW", "EG", "MA", "DZ", "TN", "LB", "JO", "PS", "IN", "BY", "KZ", "MD", "UA", "AL", "BA", "HR", "ME", "MK", "RS", "SI", "KR", "BD", "PK", "LK", "GH", "KE", "NG", "TZ", "UG", "AG", "AM", "BS", "BB", "BZ", "BT", "BW", "BF", "CV", "CW", "DM", "FJ", "GM", "GE", "GD", "GW", "GY", "HT", "JM", "KI", "LS", "LR", "MW", "MV", "ML", "MH", "FM", "NA", "NR", "NE", "PW", "PG", "WS", "SM", "ST", "SN", "SC", "SL", "SB", "KN", "LC", "VC", "SR", "TL", "TO", "TT", "TV", "VU", "AZ", "BN", "BI", "KH", "CM", "TD", "KM", "GQ", "SZ", "GA", "GN", "KG", "LA", "MO", "MR", "MN", "NP", "RW", "TG", "UZ", "ZW", "BJ", "MG", "MU", "MZ", "AO", "CI", "DJ", "ZM", "CD", "CG", "IQ", "LY", "TJ", "VE", "ET", "XK"], "external_urls": {"spotify": "https://open.spotify.com/album/5018ejLjkjyJThZvlgGn7G"}, "href": "https://api.spotify.com/v1/albums/5018ejLjkjyJThZvlgGn7G", "id": "5018ejLjkjyJThZvlgGn7G", "images": [{"height": 640, "url": "https://i.scdn.co/image/ab67616d0000b2738c8ba392dfd178ecc12010fd", "width": 640}, {"height": 300, "url": "https://i.scdn.co/image/ab67616d00001e028c8ba392dfd178ecc12010fd", "width": 300}, {"height": 64, "url": "https://i.scdn.co/image/ab67616d000048518c8ba392dfd178ecc12010fd", "width": 64}], "name": "As It Was (Sped Up)", "release_date": "2022-09-28", "release_date_precision": "day", "total_tracks": 1, "type": "album", "uri": "spotify:album:5018ejLjkjyJThZvlgGn7G"}, "artists": [{"external_urls": {"spotify": "https://open.spotify.com/artist/7C2uVXwFKLlwHteHGnMLhZ"}, "href": "https://api.spotify.com/v1/artists/7C2uVXwFKLlwHteHGnMLhZ", "id": "7C2uVXwFKLlwHteHGnMLhZ", "name": "Lewis Hanton", "type": "artist", "uri": "spotify:artist:7C2uVXwFKLlwHteHGnMLhZ"}], "available_markets": ["AR", "AU", "AT", "BE", "BO", "BR", "BG", "CA", "CL", "CO", "CR", "CY", "CZ", "DK", "DO", "DE", "EC", "EE", "SV", "FI", "FR", "GR", "GT", "HN", "HK", "HU", "IS", "IE", "IT", "LV", "LT", "LU", "MY", "MT", "MX", "NL", "NZ", "NI", "NO", "PA", "PY", "PE", "PH", "PL", "PT", "SG", "SK", "ES", "SE", "CH", "TW", "TR", "UY", "US", "GB", "AD", "LI", "MC", "ID", "JP", "TH", "VN", "RO", "IL", "ZA", "SA", "AE", "BH", "QA", "OM", "KW", "EG", "MA", "DZ", "TN", "LB", "JO", "PS", "IN", "BY", "KZ", "MD", "UA", "AL", "BA", "HR", "ME", "MK", "RS", "SI", "KR", "BD", "PK", "LK", "GH", "KE", "NG", "TZ", "UG", "AG", "AM", "BS", "BB", "BZ", "BT", "BW", "BF", "CV", "CW", "DM", "FJ", "GM", "GE", "GD", "GW", "GY", "HT", "JM", "KI", "LS", "LR", "MW", "MV", "ML", "MH", "FM", "NA", "NR", "NE", "PW", "PG", "WS", "SM", "ST", "SN", "SC", "SL", "SB", "KN", "LC", "VC", "SR", "TL", "TO", "TT", "TV", "VU", "AZ", "BN", "BI", "KH", "CM", "TD", "KM", "GQ", "SZ", "GA", "GN", "KG", "LA", "MO", "MR", "MN", "NP", "RW", "TG", "UZ", "ZW", "BJ", "MG", "MU", "MZ", "AO", "CI", "DJ", "ZM", "CD", "CG", "IQ", "LY", "TJ", "VE", "ET", "XK"], "disc_number": 1, "duration_ms": 150000, "explicit": false, "external_ids": {"isrc": "QZNWS2210678"}, "external_urls": {"spotify": "https://open.spotify.com/track/266ZmNBtYQfMjwCaW2PXt2"}, "href": "https://api.spotify.com/v1/tracks/266ZmNBtYQfMjwCaW2PXt2", "id": "266ZmNBtYQfMjwCaW2PXt2", "is_local": false, "name": "As It Was - Sped Up", "popularity": 58, "preview_url": "https://p.scdn.co/mp3-preview/3f32a672603a2d62f30c79195bece562c3309861?cid=c0c7c5d769104bb8ae0333dcc57aba0e", "track_number": 1, "type": "track", "uri": "spotify:track:266ZmNBtYQfMjwCaW2PXt2"}, {"album": {"album_type": "single", "artists": [{"external_urls": {"spotify": "https://open.spotify.com/artist/31SBgHxc8eqZUk9MdveH42"}, "href": "https://api.spotify.com/v1/artists/31SBgHxc8eqZUk9MdveH42", "id": "31SBgHxc8eqZUk9MdveH42", "name": "PREP", "type": "artist", "uri": "spotify:artist:31SBgHxc8eqZUk9MdveH42"}], "available_markets": ["AR", "AU", "AT", "BE", "BO", "BR", "BG", "CA", "CL", "CO", "CR", "CY", "CZ", "DK", "DO", "DE", "EC", "EE", "SV", "FI", "FR", "GR", "GT", "HN", "HK", "HU", "IS", "IE", "IT", "LV", "LT", "LU", "MY", "MT", "MX", "NL", "NZ", "NI", "NO", "PA", "PY", "PE", "PH", "PL", "PT", "SG", "SK", "ES", "SE", "CH", "TW", "TR", "UY", "US", "GB", "AD", "LI", "MC", "ID", "JP", "TH", "VN", "RO", "IL", "ZA", "SA", "AE", "BH", "QA", "OM", "KW", "EG", "MA", "DZ", "TN", "LB", "JO", "PS", "IN", "BY", "KZ", "MD", "UA", "AL", "BA", "HR", "ME", "MK", "RS", "SI", "BD", "PK", "LK", "GH", "KE", "NG", "TZ", "UG", "AG", "AM", "BS", "BB", "BZ", "BT", "BW", "BF", "CV", "CW", "DM", "FJ", "GM", "GE", "GD", "GW", "GY", "HT", "JM", "KI", "LS", "LR", "MW", "MV", "ML", "MH", "FM", "NA", "NR", "NE", "PW", "PG", "WS", "SM", "ST", "SN", "SC", "SL", "SB", "KN", "LC", "VC", "SR", "TL", "TO", "TT", "TV", "VU", "AZ", "BN", "BI", "KH", "CM", "TD", "KM", "GQ", "SZ", "GA", "GN", "KG", "LA", "MO", "MR", "MN", "NP", "RW", "TG", "UZ", "ZW", "BJ", "MG", "MU", "MZ", "AO", "CI", "DJ", "ZM", "CD", "CG", "IQ", "LY", "TJ", "VE", "ET", "XK"], "external_urls": {"spotify": "https://open.spotify.com/album/58i1O2d95vxAnDhkySrVOU"}, "href": "https://api.spotify.com/v1/albums/58i1O2d95vxAnDhkySrVOU", "id": "58i1O2d95vxAnDhkySrVOU", "images": [{"height": 640, "url": "https://i.scdn.co/image/ab67616d0000b2736723672df498f9264c22d785", "width": 640}, {"height": 300, "url": "https://i.scdn.co/image/ab67616d00001e026723672df498f9264c22d785", "width": 300}, {"height": 64, "url": "https://i.scdn.co/image/ab67616d000048516723672df498f9264c22d785", "width": 64}], "name": "As It Was", "release_date": "2022-08-26", "release_date_precision": "day", "total_tracks": 1, "type": "album", "uri": "spotify:album:58i1O2d95vxAnDhkySrVOU"}, "artists": [{"external_urls": {"spotify": "https://open.spotify.com/artist/31SBgHxc8eqZUk9MdveH42"}, "href": "https://api.spotify.com/v1/artists/31SBgHxc8eqZUk9MdveH42", "id": "31SBgHxc8eqZUk9MdveH42", "name": "PREP", "type": "artist", "uri": "spotify:artist:31SBgHxc8eqZUk9MdveH42"}], "available_markets": ["AR", "AU", "AT", "BE", "BO", "BR", "BG", "CA", "CL", "CO", "CR", "CY", "CZ", "DK", "DO", "DE", "EC", "EE", "SV", "FI", "FR", "GR", "GT", "HN", "HK", "HU", "IS", "IE", "IT", "LV", "LT", "LU", "MY", "MT", "MX", "NL", "NZ", "NI", "NO", "PA", "PY", "PE", "PH", "PL", "PT", "SG", "SK", "ES", "SE", "CH", "TW", "TR", "UY", "US", "GB", "AD", "LI", "MC", "ID", "JP", "TH", "VN", "RO", "IL", "ZA", "SA", "AE", "BH", "QA", "OM", "KW", "EG", "MA", "DZ", "TN", "LB", "JO", "PS", "IN", "BY", "KZ", "MD", "UA", "AL", "BA", "HR", "ME", "MK", "RS", "SI", "BD", "PK", "LK", "GH", "KE", "NG", "TZ", "UG", "AG", "AM", "BS", "BB", "BZ", "BT", "BW", "BF", "CV", "CW", "DM", "FJ", "GM", "GE", "GD", "GW", "GY", "HT", "JM", "KI", "LS", "LR", "MW", "MV", "ML", "MH", "FM", "NA", "NR", "NE", "PW", "PG", "WS", "SM", "ST", "SN", "SC", "SL", "SB", "KN", "LC", "VC", "SR", "TL", "TO", "TT", "TV", "VU", "AZ", "BN", "BI", "KH", "CM", "TD", "KM", "GQ", "SZ", "GA", "GN", "KG", "LA", "MO", "MR", "MN", "NP", "RW", "TG", "UZ", "ZW", "BJ", "MG", "MU", "MZ", "AO", "CI", "DJ", "ZM", "CD", "CG", "IQ", "LY", "TJ", "VE", "ET", "XK"], "disc_number": 1, "duration_ms": 226798, "explicit": false, "external_ids": {"isrc": "USN2F2200027"}, "external_urls": {"spotify": "https://open.spotify.com/track/1i92UFFkxtKv4tYNzt1X1b"}, "href": "https://api.spotify.com/v1/tracks/1i92UFFkxtKv4tYNzt1X1b", "id": "1i92UFFkxtKv4tYNzt1X1b", "is_local": false, "name": "As It Was", "popularity": 64, "preview_url": "https://p.scdn.co/mp3-preview/63732f0b7aac4cc56cca4d133ee255aa78cc383a?cid=c0c7c5d769104bb8ae0333dcc57aba0e", "track_number": 1, "type": "track", "uri": "spotify:track:1i92UFFkxtKv4tYNzt1X1b"}], "limit": 5, "next": "https://api.spotify.com/v1/search?query=As+It+Was&type=track&offset=5&limit=5", "offset": 0, "previous": null, "total": 211}}